{
  "printWidth": 80,
  "tabWidth": 4,
  "useTabs": false,
  "semi": true,
  "singleQuote": true,
  "quoteProps": "as-needed",
  "jsxSingleQuote": false,
  "trailingComma": "all",
  "bracketSpacing": true,
  "jsxBracketSameLine": false,
  "arrowParens": "always",
  "proseWrap": "preserve",
  "endOfLine": "lf"
}